[gd_resource type="Resource" script_class="ResourceGroup" load_steps=2 format=3 uid="uid://cx1s58qrdho73"]

[ext_resource type="Script" path="res://addons/godot_resource_groups/resource_group.gd" id="1_d2580"]

[resource]
script = ExtResource("1_d2580")
base_folder = "res://Audio/Music"
includes = Array[String](["*.mp3"])
excludes = Array[String]([])
paths = Array[String](["res://Audio/Music/Invaders.mp3", "res://Audio/Music/Lose Brick Blaster.mp3", "res://Audio/Music/Lose Invaders.mp3", "res://Audio/Music/Music Brick Blaster.mp3", "res://Audio/Music/Win Brick Blaster.mp3", "res://Audio/Music/Win Invaders.mp3"])
