[gd_resource type="Resource" script_class="ResourceGroup" load_steps=2 format=3 uid="uid://cihaupj0wad1u"]

[ext_resource type="Script" path="res://addons/godot_resource_groups/resource_group.gd" id="1_prxjo"]

[resource]
script = ExtResource("1_prxjo")
base_folder = "res://Audio/SFX/Typing Sound"
includes = Array[String](["*.mp3"])
excludes = Array[String]([])
paths = Array[String](["res://Audio/SFX/Typing Sound/Typing 1.mp3", "res://Audio/SFX/Typing Sound/Typing 2.mp3", "res://Audio/SFX/Typing Sound/Typing 3.mp3", "res://Audio/SFX/Typing Sound/Typing 4.mp3", "res://Audio/SFX/Typing Sound/Typing 5.mp3", "res://Audio/SFX/Typing Sound/Typing Enter.mp3"])
