[gd_scene load_steps=3 format=3 uid="uid://dga7878ugi6kk"]

[ext_resource type="Script" path="res://Scripts/taskbar.gd" id="1_37sie"]
[ext_resource type="Texture2D" uid="uid://d18l5cxsaq3na" path="res://Images/Window/Taskbar.png" id="1_mbt8x"]

[node name="Taskbar" type="Node2D"]
position = Vector2(0, 3)
script = ExtResource("1_37sie")

[node name="Sprite2D" type="Sprite2D" parent="."]
texture_filter = 1
position = Vector2(565, 1048)
scale = Vector2(1.001, 0.75)
texture = ExtResource("1_mbt8x")
flip_h = true
